%YAML 1.1
%TAG !u! tag:unity3d.com,2011:
--- !u!114 &-4262840281339203415
MonoBehaviour:
  m_ObjectHideFlags: 11
  m_CorrespondingSourceObject: {fileID: 0}
  m_PrefabInstance: {fileID: 0}
  m_PrefabAsset: {fileID: 0}
  m_GameObject: {fileID: 0}
  m_Enabled: 1
  m_EditorHideFlags: 0
  m_Script: {fileID: 11500000, guid: d0353a89b1f911e48b9e16bdc9f2e058, type: 3}
  m_Name: 
  m_EditorClassIdentifier: 
  version: 5
--- !u!21 &2100000
Material:
  serializedVersion: 8
  m_ObjectHideFlags: 0
  m_CorrespondingSourceObject: {fileID: 0}
  m_PrefabInstance: {fileID: 0}
  m_PrefabAsset: {fileID: 0}
  m_Name: Clouds shader
  m_Shader: {fileID: -6465566751694194690, guid: 690eeb33dc0234147b239dcb0ca4b5ff, type: 3}
  m_ValidKeywords: []
  m_InvalidKeywords: []
  m_LightmapFlags: 4
  m_EnableInstancingVariants: 0
  m_DoubleSidedGI: 0
  m_CustomRenderQueue: -1
  stringTagMap: {}
  disabledShaderPasses: []
  m_SavedProperties:
    serializedVersion: 3
    m_TexEnvs:
    - unity_Lightmaps:
        m_Texture: {fileID: 0}
        m_Scale: {x: 1, y: 1}
        m_Offset: {x: 0, y: 0}
    - unity_LightmapsInd:
        m_Texture: {fileID: 0}
        m_Scale: {x: 1, y: 1}
        m_Offset: {x: 0, y: 0}
    - unity_ShadowMasks:
        m_Texture: {fileID: 0}
        m_Scale: {x: 1, y: 1}
        m_Offset: {x: 0, y: 0}
    m_Ints: []
    m_Floats:
    - Vector1_26fe135a42584b4f807a4ae09b8f1467: 0.003
    - Vector1_47cb3bcfcb4243cea364a9f4c7a2bf28: 1
    - Vector1_6218dc7c7a4b408884ebb1153705b68b: 0
    - Vector1_63722429ce7d47aab943c22c210286b1: 10000
    - Vector1_6a432dd43f144bdb9a8fa1be6fab0c64: 30
    - Vector1_902452a3abbc4253be6d68e16f579bba: 25.3
    - Vector1_aacb6a99239f48a89a808cee59b54cce: 2
    - Vector1_b73002a337c54440af558fc3ee578c28: 0.04
    - Vector1_cfd8a050a22b4a698988903693226428: 15
    - Vector1_e189d69e66384042bd3a930cf7482a99: 1.3
    - _QueueControl: 0
    - _QueueOffset: 0
    m_Colors:
    - Color_19a0b2b2121c404390c947e7168fcb13: {r: 0.05660379, g: 0.05660379, b: 0.05660379, a: 1}
    - Color_266b7ccded8847c8a43e75867b7732b1: {r: 0.028301895, g: 0.028301895, b: 0.028301895, a: 0}
    - Vector4_2a118e863f3b42c9a06f48a775aeb4ca: {r: -0.25, g: 0.95, b: -0.17, a: 1.08}
    - Vector4_b5281f0180784c9388e77f0b3841413f: {r: 1, g: 0, b: 0, a: -42.5}
  m_BuildTextureStacks: []
