%YAML 1.1
%TAG !u! tag:unity3d.com,2011:
--- !u!74 &7400000
AnimationClip:
  m_ObjectHideFlags: 0
  m_CorrespondingSourceObject: {fileID: 0}
  m_PrefabInstance: {fileID: 0}
  m_PrefabAsset: {fileID: 0}
  m_Name: Loading
  serializedVersion: 6
  m_Legacy: 0
  m_Compressed: 0
  m_UseHighQualityCurve: 1
  m_RotationCurves: []
  m_CompressedRotationCurves: []
  m_EulerCurves: []
  m_PositionCurves: []
  m_ScaleCurves: []
  m_FloatCurves: []
  m_PPtrCurves:
  - curve:
    - time: 0
      value: {fileID: 21300000, guid: fdedbcd28d2e6594ebeee393b8bae1cd, type: 3}
    - time: 0.016666668
      value: {fileID: 21300000, guid: 06aea3af46681d843a9d602e43d51ca1, type: 3}
    - time: 0.033333335
      value: {fileID: 21300000, guid: 1d0a489393c56f74e9983efe9d4cd9e1, type: 3}
    - time: 0.05
      value: {fileID: 21300000, guid: a6b0d2129855cd549993d620fef000c1, type: 3}
    - time: 0.06666667
      value: {fileID: 21300000, guid: 9d1b696493e119241b1c05243e0ae3d0, type: 3}
    - time: 0.083333336
      value: {fileID: 21300000, guid: 76c4abb79936bfd4fa33ea7c7c562471, type: 3}
    - time: 0.1
      value: {fileID: 21300000, guid: 33c3a67a74d81844fbea63bfc90aada9, type: 3}
    - time: 0.11666667
      value: {fileID: 21300000, guid: 848ae4c3f555789418b14f481fba824f, type: 3}
    - time: 0.13333334
      value: {fileID: 21300000, guid: aff6e2f0089a3344c839c87b0142a5bf, type: 3}
    - time: 0.15
      value: {fileID: 21300000, guid: 2b82b34e267dac142957148da1e67d37, type: 3}
    - time: 0.16666667
      value: {fileID: 21300000, guid: 65c4a3b48e972614a9e9f7741b334de7, type: 3}
    - time: 0.18333334
      value: {fileID: 21300000, guid: f5e0cc80f2a5337478f43ca72be945f7, type: 3}
    - time: 0.2
      value: {fileID: 21300000, guid: 5788b223bf4d53140986548a4d1acfb7, type: 3}
    - time: 0.21666667
      value: {fileID: 21300000, guid: 839846c5f04b3804e8e2b9e4a76b8013, type: 3}
    - time: 0.23333333
      value: {fileID: 21300000, guid: 4e6bf58971f317a4a9554f7a4488a7c6, type: 3}
    - time: 0.25
      value: {fileID: 21300000, guid: e48bac09ed2cf88488ea40f397f445b4, type: 3}
    - time: 0.26666668
      value: {fileID: 21300000, guid: 9f9144dffb095154eb7d4aac70e54cda, type: 3}
    - time: 0.28333333
      value: {fileID: 21300000, guid: 98e7244752fb62a429d44b6badaa66ed, type: 3}
    - time: 0.3
      value: {fileID: 21300000, guid: a3f4c7979f7d1ca4fbf2283969eb43fb, type: 3}
    - time: 0.31666666
      value: {fileID: 21300000, guid: bf259613524b30a408efe6077e39baf7, type: 3}
    - time: 0.33333334
      value: {fileID: 21300000, guid: 9d4858277528da742a6ed6a869807b03, type: 3}
    - time: 0.35
      value: {fileID: 21300000, guid: 8d00b3ece50be184c9d0df738a7db06f, type: 3}
    - time: 0.36666667
      value: {fileID: 21300000, guid: b90112d2ca471544fa7006ad2b788eaf, type: 3}
    - time: 0.38333333
      value: {fileID: 21300000, guid: d82bebc659cb3084a8bcc5aab29ea716, type: 3}
    - time: 0.4
      value: {fileID: 21300000, guid: 2cdeed6392f910444961bed5bf6a4028, type: 3}
    - time: 0.41666666
      value: {fileID: 21300000, guid: eacb2d734d7c95445b3e5486e1c8ca38, type: 3}
    - time: 0.43333334
      value: {fileID: 21300000, guid: 1603990f6f6b3f745be008b619a63ac7, type: 3}
    - time: 0.45
      value: {fileID: 21300000, guid: 38cafced71ce8f04d81490969426a460, type: 3}
    - time: 0.46666667
      value: {fileID: 21300000, guid: 7e5cbbb92681a1a489552df8eaa2815b, type: 3}
    - time: 0.48333332
      value: {fileID: 21300000, guid: c9621e161f1fd3648a70a6141bb037c2, type: 3}
    - time: 0.5
      value: {fileID: 21300000, guid: 496572053d1fd964fa8f1434549d7a13, type: 3}
    - time: 0.51666665
      value: {fileID: 21300000, guid: 14627d218ba336a4dbe9321398c8452c, type: 3}
    - time: 0.53333336
      value: {fileID: 21300000, guid: 37fbe85ad80dbf7408d2a24cba6f02cc, type: 3}
    - time: 0.55
      value: {fileID: 21300000, guid: a58940188cb96e747bcbcc26d4bbd72a, type: 3}
    - time: 0.56666666
      value: {fileID: 21300000, guid: 28a1baa4ee9f7e6489a7e42fe155e9e1, type: 3}
    - time: 0.5833333
      value: {fileID: 21300000, guid: 15d2aa6baa9eedf4c81c5c5028ef5fd3, type: 3}
    - time: 0.6
      value: {fileID: 21300000, guid: b1bf5d3755f9fe84486992d8b9de24a5, type: 3}
    - time: 0.6166667
      value: {fileID: 21300000, guid: 979d8b9366dd054469b6011ef57532d5, type: 3}
    - time: 0.6333333
      value: {fileID: 21300000, guid: 8ab9b77c82044cf4aae03a604394e306, type: 3}
    - time: 0.65
      value: {fileID: 21300000, guid: d6c0d302687868f478dfbb6729c995ce, type: 3}
    - time: 0.6666667
      value: {fileID: 21300000, guid: 09d2631a401818b46af9c7560706ebb8, type: 3}
    - time: 0.68333334
      value: {fileID: 21300000, guid: 28c4b267e34da044c868c41e35d0354e, type: 3}
    - time: 0.7
      value: {fileID: 21300000, guid: 84c0cb4b4008ee248b75cfe262bb33ba, type: 3}
    - time: 0.71666664
      value: {fileID: 21300000, guid: 337ec711446536248aa336b534f54b40, type: 3}
    - time: 0.73333335
      value: {fileID: 21300000, guid: f4856f678a984fd43a145555d870f407, type: 3}
    - time: 0.75
      value: {fileID: 21300000, guid: 0c8ee433c8bb99944acb37e8330d3fc3, type: 3}
    - time: 0.76666665
      value: {fileID: 21300000, guid: e055b119910ae824f9f77ce24ba7f5e3, type: 3}
    - time: 0.78333336
      value: {fileID: 21300000, guid: 37ae95a7300677846bc1cd853c55867c, type: 3}
    - time: 0.8
      value: {fileID: 21300000, guid: ad178ed4f98b7d1478375c816f11f73e, type: 3}
    - time: 0.81666666
      value: {fileID: 21300000, guid: 39817cfb05ce4ef4283019d83b8e5436, type: 3}
    - time: 0.8333333
      value: {fileID: 21300000, guid: 8d9ed56cf2368dd40b420799a5156c81, type: 3}
    - time: 0.85
      value: {fileID: 21300000, guid: 0efb5c3586d59fd4b827946ed3795b92, type: 3}
    - time: 0.8666667
      value: {fileID: 21300000, guid: f4153e3e262b1c045a4181ee25c16c5d, type: 3}
    - time: 0.8833333
      value: {fileID: 21300000, guid: 789e5d836d306c44a937cf7a1f16b2dd, type: 3}
    - time: 0.9
      value: {fileID: 21300000, guid: ba4c4b3c2640414439d08d933f50a175, type: 3}
    - time: 0.9166667
      value: {fileID: 21300000, guid: 626d3422bd8a5bb40bc747b8d72e1443, type: 3}
    - time: 0.93333334
      value: {fileID: 21300000, guid: 74f3b66bd06c8a94dab72adebc2298b6, type: 3}
    - time: 0.95
      value: {fileID: 21300000, guid: d9c5f21bbcff4764da5441e618606055, type: 3}
    - time: 0.96666664
      value: {fileID: 21300000, guid: 3f565eea4ab03de45a0865a3d3d4a53c, type: 3}
    - time: 0.98333335
      value: {fileID: 21300000, guid: 52d30e1e35ec8064db194faff50a47db, type: 3}
    - time: 1
      value: {fileID: 21300000, guid: 9c7d5ded4395f1745816c56377e30824, type: 3}
    - time: 1.0166667
      value: {fileID: 21300000, guid: 851b6baa3881f8844a87bf913e925b53, type: 3}
    - time: 1.0333333
      value: {fileID: 21300000, guid: 07a7f97fbfa7f904db01193ca202d943, type: 3}
    - time: 1.05
      value: {fileID: 21300000, guid: caf31878224a70c4bbec8f7a8368feff, type: 3}
    - time: 1.0666667
      value: {fileID: 21300000, guid: cac172c139e9e724e9afbb5600c2eeef, type: 3}
    - time: 1.1666666
      value: {fileID: 21300000, guid: cac172c139e9e724e9afbb5600c2eeef, type: 3}
    attribute: m_Sprite
    path: 
    classID: 114
    script: {fileID: 11500000, guid: fe87c0e1cc204ed48ad3b37840f39efc, type: 3}
  m_SampleRate: 60
  m_WrapMode: 0
  m_Bounds:
    m_Center: {x: 0, y: 0, z: 0}
    m_Extent: {x: 0, y: 0, z: 0}
  m_ClipBindingConstant:
    genericBindings:
    - serializedVersion: 2
      path: 0
      attribute: 2015549526
      script: {fileID: 11500000, guid: fe87c0e1cc204ed48ad3b37840f39efc, type: 3}
      typeID: 114
      customType: 0
      isPPtrCurve: 1
    pptrCurveMapping:
    - {fileID: 21300000, guid: fdedbcd28d2e6594ebeee393b8bae1cd, type: 3}
    - {fileID: 21300000, guid: 06aea3af46681d843a9d602e43d51ca1, type: 3}
    - {fileID: 21300000, guid: 1d0a489393c56f74e9983efe9d4cd9e1, type: 3}
    - {fileID: 21300000, guid: a6b0d2129855cd549993d620fef000c1, type: 3}
    - {fileID: 21300000, guid: 9d1b696493e119241b1c05243e0ae3d0, type: 3}
    - {fileID: 21300000, guid: 76c4abb79936bfd4fa33ea7c7c562471, type: 3}
    - {fileID: 21300000, guid: 33c3a67a74d81844fbea63bfc90aada9, type: 3}
    - {fileID: 21300000, guid: 848ae4c3f555789418b14f481fba824f, type: 3}
    - {fileID: 21300000, guid: aff6e2f0089a3344c839c87b0142a5bf, type: 3}
    - {fileID: 21300000, guid: 2b82b34e267dac142957148da1e67d37, type: 3}
    - {fileID: 21300000, guid: 65c4a3b48e972614a9e9f7741b334de7, type: 3}
    - {fileID: 21300000, guid: f5e0cc80f2a5337478f43ca72be945f7, type: 3}
    - {fileID: 21300000, guid: 5788b223bf4d53140986548a4d1acfb7, type: 3}
    - {fileID: 21300000, guid: 839846c5f04b3804e8e2b9e4a76b8013, type: 3}
    - {fileID: 21300000, guid: 4e6bf58971f317a4a9554f7a4488a7c6, type: 3}
    - {fileID: 21300000, guid: e48bac09ed2cf88488ea40f397f445b4, type: 3}
    - {fileID: 21300000, guid: 9f9144dffb095154eb7d4aac70e54cda, type: 3}
    - {fileID: 21300000, guid: 98e7244752fb62a429d44b6badaa66ed, type: 3}
    - {fileID: 21300000, guid: a3f4c7979f7d1ca4fbf2283969eb43fb, type: 3}
    - {fileID: 21300000, guid: bf259613524b30a408efe6077e39baf7, type: 3}
    - {fileID: 21300000, guid: 9d4858277528da742a6ed6a869807b03, type: 3}
    - {fileID: 21300000, guid: 8d00b3ece50be184c9d0df738a7db06f, type: 3}
    - {fileID: 21300000, guid: b90112d2ca471544fa7006ad2b788eaf, type: 3}
    - {fileID: 21300000, guid: d82bebc659cb3084a8bcc5aab29ea716, type: 3}
    - {fileID: 21300000, guid: 2cdeed6392f910444961bed5bf6a4028, type: 3}
    - {fileID: 21300000, guid: eacb2d734d7c95445b3e5486e1c8ca38, type: 3}
    - {fileID: 21300000, guid: 1603990f6f6b3f745be008b619a63ac7, type: 3}
    - {fileID: 21300000, guid: 38cafced71ce8f04d81490969426a460, type: 3}
    - {fileID: 21300000, guid: 7e5cbbb92681a1a489552df8eaa2815b, type: 3}
    - {fileID: 21300000, guid: c9621e161f1fd3648a70a6141bb037c2, type: 3}
    - {fileID: 21300000, guid: 496572053d1fd964fa8f1434549d7a13, type: 3}
    - {fileID: 21300000, guid: 14627d218ba336a4dbe9321398c8452c, type: 3}
    - {fileID: 21300000, guid: 37fbe85ad80dbf7408d2a24cba6f02cc, type: 3}
    - {fileID: 21300000, guid: a58940188cb96e747bcbcc26d4bbd72a, type: 3}
    - {fileID: 21300000, guid: 28a1baa4ee9f7e6489a7e42fe155e9e1, type: 3}
    - {fileID: 21300000, guid: 15d2aa6baa9eedf4c81c5c5028ef5fd3, type: 3}
    - {fileID: 21300000, guid: b1bf5d3755f9fe84486992d8b9de24a5, type: 3}
    - {fileID: 21300000, guid: 979d8b9366dd054469b6011ef57532d5, type: 3}
    - {fileID: 21300000, guid: 8ab9b77c82044cf4aae03a604394e306, type: 3}
    - {fileID: 21300000, guid: d6c0d302687868f478dfbb6729c995ce, type: 3}
    - {fileID: 21300000, guid: 09d2631a401818b46af9c7560706ebb8, type: 3}
    - {fileID: 21300000, guid: 28c4b267e34da044c868c41e35d0354e, type: 3}
    - {fileID: 21300000, guid: 84c0cb4b4008ee248b75cfe262bb33ba, type: 3}
    - {fileID: 21300000, guid: 337ec711446536248aa336b534f54b40, type: 3}
    - {fileID: 21300000, guid: f4856f678a984fd43a145555d870f407, type: 3}
    - {fileID: 21300000, guid: 0c8ee433c8bb99944acb37e8330d3fc3, type: 3}
    - {fileID: 21300000, guid: e055b119910ae824f9f77ce24ba7f5e3, type: 3}
    - {fileID: 21300000, guid: 37ae95a7300677846bc1cd853c55867c, type: 3}
    - {fileID: 21300000, guid: ad178ed4f98b7d1478375c816f11f73e, type: 3}
    - {fileID: 21300000, guid: 39817cfb05ce4ef4283019d83b8e5436, type: 3}
    - {fileID: 21300000, guid: 8d9ed56cf2368dd40b420799a5156c81, type: 3}
    - {fileID: 21300000, guid: 0efb5c3586d59fd4b827946ed3795b92, type: 3}
    - {fileID: 21300000, guid: f4153e3e262b1c045a4181ee25c16c5d, type: 3}
    - {fileID: 21300000, guid: 789e5d836d306c44a937cf7a1f16b2dd, type: 3}
    - {fileID: 21300000, guid: ba4c4b3c2640414439d08d933f50a175, type: 3}
    - {fileID: 21300000, guid: 626d3422bd8a5bb40bc747b8d72e1443, type: 3}
    - {fileID: 21300000, guid: 74f3b66bd06c8a94dab72adebc2298b6, type: 3}
    - {fileID: 21300000, guid: d9c5f21bbcff4764da5441e618606055, type: 3}
    - {fileID: 21300000, guid: 3f565eea4ab03de45a0865a3d3d4a53c, type: 3}
    - {fileID: 21300000, guid: 52d30e1e35ec8064db194faff50a47db, type: 3}
    - {fileID: 21300000, guid: 9c7d5ded4395f1745816c56377e30824, type: 3}
    - {fileID: 21300000, guid: 851b6baa3881f8844a87bf913e925b53, type: 3}
    - {fileID: 21300000, guid: 07a7f97fbfa7f904db01193ca202d943, type: 3}
    - {fileID: 21300000, guid: caf31878224a70c4bbec8f7a8368feff, type: 3}
    - {fileID: 21300000, guid: cac172c139e9e724e9afbb5600c2eeef, type: 3}
    - {fileID: 21300000, guid: cac172c139e9e724e9afbb5600c2eeef, type: 3}
  m_AnimationClipSettings:
    serializedVersion: 2
    m_AdditiveReferencePoseClip: {fileID: 0}
    m_AdditiveReferencePoseTime: 0
    m_StartTime: 0
    m_StopTime: 1.1833333
    m_OrientationOffsetY: 0
    m_Level: 0
    m_CycleOffset: 0
    m_HasAdditiveReferencePose: 0
    m_LoopTime: 1
    m_LoopBlend: 0
    m_LoopBlendOrientation: 0
    m_LoopBlendPositionY: 0
    m_LoopBlendPositionXZ: 0
    m_KeepOriginalOrientation: 0
    m_KeepOriginalPositionY: 1
    m_KeepOriginalPositionXZ: 0
    m_HeightFromFeet: 0
    m_Mirror: 0
  m_EditorCurves: []
  m_EulerEditorCurves: []
  m_HasGenericRootTransform: 0
  m_HasMotionFloatCurves: 0
  m_Events: []
